Text Mining
…
---

## **What do we mean by tidy text?**

```r
library(tidytext)

text_df %>%
* unnest_tokens(word, text)
```

```
## # A tibble: 41 x 2
##     line word   
##    <int> <chr>  
##  1     1 tell   
##  2     1 all    
##  3     1 the    
##  4     1 truth  
##  5     1 but    
##  6     1 tell   
##  7     1 it     
##  8     1 slant  
##  9     2 success
## 10     2 in     
## # … with 31 more rows
```
…
---

## Your turn 2

.large[What do you predict will happen if we run the following code?

```r
tidy_book %>%
  count(word, sort = TRUE)
```

```
## # A tibble: 2,106 x 2
##    word      n
##    <chr> <int>
##  1 the     882
##  2 and     358
##  3 of      337
##  4 in      270
##  5 my      250
##  6 to      247
##  7 i       236
##  8 is      152
##  9 you     136
## 10 your    134
## # … with 2,096 more rows
```

---

## **Stop words**

```r
get_stopwords()
```

```
## # A tibble: 175 x 2
##    word      lexicon 
##    <chr>     <chr>   
##  1 i         snowball
##  2 me        snowball
##  3 my        snowball
##  4 myself    snowball
##  5 we        snowball
##  6 our       snowball
##  7 ours      snowball
##  8 ourselves snowball
##  9 you       snowball
## 10 your      snowball
## # … with 165 more rows
```

---

## **Stop words**

```r
get_stopwords(language = "es")
```

```
## # A tibble: 308 x 2
##    word  lexicon 
##    <chr> <chr>   
##  1 de    snowball
##  2 la    snowball
##  3 que   snowball
##  4 el    snowball
##  5 en    snowball
##  6 y     snowball
##  7 a     snowball
##  8 los   snowball
##  9 del   snowball
## 10 se    snowball
## # … with 298 more rows
```

---

## **Stop words**

```r
get_stopwords(language = "pt")
```

```
## # A tibble: 203 x 2
##    word  lexicon 
##    <chr> <chr>   
##  1 de    snowball
##  2 a     snowball
##  3 o     snowball
##  4 que   snowball
##  5 e     snowball
##  6 do    snowball
##  7 da    snowball
##  8 em    snowball
##  9 um    snowball
## 10 para  snowball
## # … with 193 more rows
```

---

## **Stop words**

```r
get_stopwords(source = "smart")
```

```
## # A tibble: 571 x 2
##    word        lexicon
##    <chr>       <chr>  
##  1 a           smart  
##  2 a's         smart  
##  3 able        smart  
##  4 about       smart  
##  5 above       smart  
##  6 according   smart  
##  7 accordingly smart  
##  8 across      smart  
##  9 actually    smart  
## 10 after       smart  
## # … with 561 more rows
```
…
class: inverse, center, middle

# SENTIMENT ANALYSIS
# Using lexicons

---

## **Sentiment lexicons**

```r
get_sentiments("bing")
```

```
## # A tibble: 6,786 x 2
##    word        sentiment
##    <chr>       <chr>    
##  1 2-faces     negative 
##  2 abnormal    negative 
##  3 abolish     negative 
##  4 abominable  negative 
##  5 abominably  negative 
##  6 abominate   negative 
##  7 abomination negative 
##  8 abort       negative 
##  9 aborted     negative 
## 10 aborts      negative 
## # … with 6,776 more rows
```
…
---

## **Implementing sentiment analysis**

.large[What do you predict will happen if we run the following code?]

```r
tidy_book %>%
  inner_join(get_sentiments("bing")) %>%            
* count(sentiment, word, sort = TRUE)
```

```
## # A tibble: 360 x 3
##    sentiment word       n
##    <chr>     <chr>  <int>
##  1 positive  love      33
##  2 negative  dust      28
##  3 positive  like      28
##  4 negative  dark      24
##  5 positive  joy       17
##  6 negative  death     15
##  7 positive  master    15
##  8 negative  pain      13
##  9 positive  glad      10
## 10 positive  silent    10
## # … with 350 more rows
```
…
```r
book_tfidf <- book_words %>%
  bind_tf_idf(word, title, n)
```

---

## **Calculating tf-idf**

```r
book_tfidf
```

```
## # A tibble: 20,872 x 6
##    title                                         word      n     tf   idf tf_idf
##    <chr>                                         <chr> <int>  <dbl> <dbl>  <dbl>
##  1 Some Principles of Maritime Strategy          the    8051 0.0778 0     0     
##  2 The Riddle of the Rhine: Chemical Strategy i… the    6150 0.0802 0     0     
##  3 Some Principles of Maritime Strategy          of     4613 0.0446 0     0     
##  4 Chess Strategy                                the    4104 0.0549 0     0     
##  5 The Riddle of the Rhine: Chemical Strategy i… of     3820 0.0498 0     0     
##  6 Chess Strategy                                p      3768 0.0504 0.511 0.0258
##  7 Some Principles of Maritime Strategy          to     3630 0.0351 0     0     
##  8 Some Principles of Maritime Strategy          and    2320 0.0224 0     0     
##  9 Some Principles of Maritime Strategy          in     2191 0.0212 0     0     
## 10 Some Principles of Maritime Strategy          a      1929 0.0186 0     0     
## # … with 20,862 more rows
```
…
---

## Your turn 8

.large[What do you predict will happen if we run the following code? 

```r
book_tfidf %>%
  arrange(-tf_idf)
```

```
## # A tibble: 20,872 x 6
##    title                                     word        n      tf   idf  tf_idf
##    <chr>                                     <chr>   <int>   <dbl> <dbl>   <dbl>
##  1 "Chess Strategy"                          kt       1479 0.0198  1.61  0.0319 
##  2 "Chess Strategy"                          p        3768 0.0504  0.511 0.0258 
##  3 "Chess Strategy"                          q         977 0.0131  1.61  0.0211 
##  4 "Chess Strategy"                          k        1240 0.0166  0.916 0.0152 
##  5 "Chess Strategy"                          r        1155 0.0155  0.916 0.0142 
##  6 "Chess Strategy"                          pawn      523 0.00700 1.61  0.0113 
##  7 "Chess Strategy"                          b        1528 0.0205  0.511 0.0105 
##  8 "Chess Strategy"                          white     805 0.0108  0.916 0.00988
##  9 "The Riddle of the Rhine: Chemical Strat… gas       773 0.0101  0.916 0.00924
## 10 "National Strategy for Combating Terrori… terror…   106 0.00998 0.916 0.00915
## # … with 20,862 more rows
```
…
---

## **N-grams... and beyond!**

```r
tidy_ngram <- full_text %>%
  unnest_tokens(bigram, text, token = "ngrams", n = 2)   

tidy_ngram
```

```
## # A tibble: 10,471 x 2
##    gutenberg_id bigram              
##           <int> <chr>               
##  1         6522 original html       
##  2         6522 html version        
##  3         6522 version created     
##  4         6522 created at          
##  5         6522 at eldritchpress.org
##  6         6522 eldritchpress.org by
##  7         6522 by eric             
##  8         6522 eric eldred         
##  9         6522 eldred this         
## 10         6522 this ebook          
## # … with 10,461 more rows
```

---

## **N-grams... and beyond!**

```r
tidy_ngram %>%
  count(bigram, sort = TRUE)
```

```
## # A tibble: 7,465 x 2
##    bigram       n
##    <chr>    <int>
##  1 of the     103
##  2 in the     102
##  3 and the     41
##  4 to the      34
##  5 my heart    29
##  6 in my       27
##  7 my life     26
##  8 with the    25
##  9 of my       24
## 10 on the      23
## # … with 7,455 more rows
```
…
---

## **N-grams... and beyond!**

```r
bigram_counts
```

```
## # A tibble: 1,063 x 3
##    word1    word2       n
##    <chr>    <chr>   <int>
##  1 lord     buddha      7
##  2 morning  light       5
##  3 thy      trumpet     5
##  4 art      thou        3
##  5 earthen  lamp        3
##  6 heart    timid       3
##  7 lose     heart       3
##  8 city     wall        2
##  9 clan     art         2
## 10 daylight faded       2
## # … with 1,053 more rows
```
…
